…
##summarize
nba2017_teams <-summarise(group_by(nba2017_teams, team),experience = sum(experience), salary = sum(salary)/1000000,points3 = sum(points3_made), points2 = sum(points2_made), free_throws = sum(points1_made), points = sum(points), off_rebounds = sum(off_rebounds), 
                          def_rebounds =sum(def_rebounds), assists = sum(assists), steals = sum(steals), blocks = sum(blocks), turnovers = sum(turnovers),  fouls = sum(fouls), efficiency = sum(efficiency))
is.data.frame(nba2017_teams)
```

    ## [1] TRUE

``` r
nba2017_teams
```

    ## # A tibble: 30 x 15
    ##     team experience    salary points3 points2 free_throws points
    ##    <chr>      <int>     <dbl>   <int>   <int>       <int>  <dbl>
    ##  1   ATL         93  90.88649     626    2254        1373   7759
    ##  2   BOS         63  91.91509     985    2183        1536   8857
    ##  3   BRK         52  65.45121     738    1950        1381   7495
    ##  4   CHI         58  92.07689     565    2162        1330   7349
    ##  5   CHO         66 100.24629     808    2102        1499   8127
    ##  6   CLE        128 125.79022    1012    2107        1355   8605
    ##  7   DAL         62  92.09820     754    1803        1042   6910
    ##  8   DEN         74  78.38299     868    2347        1471   8769
    ##  9   DET         55 103.07391     631    2638        1140   8309
    ## 10   GSW        101  98.69091     982    2540        1447   9473
    ## # ... with 20 more rows, and 8 more variables: off_rebounds <int>,
    ## #   def_rebounds <int>, assists <int>, steals <int>, blocks <int>,
    ## #   turnovers <int>, fouls <int>, efficiency <dbl>
…
